test/output.vcd
$version Generated by VerilatedVcd $end
$date Mon Nov 21 14:18:08 2022 $end
$timescale 1ps $end

 $scope module TOP $end
  $var wire  1 G i_clock $end
  $var wire 32 J i_read_data [31:0] $end
  $var wire  1 H i_reset $end
  $var wire 32 N o_pc [31:0] $end
  $var wire 32 I o_read_address [31:0] $end
  $var wire 32 K o_write_address [31:0] $end
  $var wire 32 L o_write_data [31:0] $end
  $var wire  4 M o_write_enable [3:0] $end
  $scope module balsa_core $end
   $var wire 32 D current_instruction [31:0] $end
   $var wire  1 G i_clock $end
   $var wire 32 J i_read_data [31:0] $end
   $var wire  1 H i_reset $end
   $var wire 32 N o_pc [31:0] $end
   $var wire 32 I o_read_address [31:0] $end
   $var wire 32 K o_write_address [31:0] $end
   $var wire 32 L o_write_data [31:0] $end
   $var wire  4 M o_write_enable [3:0] $end
   $var wire 32 # pc [31:0] $end
   $var wire 32 $ registers[0] [31:0] $end
   $var wire 32 . registers[10] [31:0] $end
   $var wire 32 / registers[11] [31:0] $end
   $var wire 32 0 registers[12] [31:0] $end
   $var wire 32 1 registers[13] [31:0] $end
   $var wire 32 2 registers[14] [31:0] $end
   $var wire 32 3 registers[15] [31:0] $end
   $var wire 32 4 registers[16] [31:0] $end
   $var wire 32 5 registers[17] [31:0] $end
   $var wire 32 6 registers[18] [31:0] $end
   $var wire 32 7 registers[19] [31:0] $end
   $var wire 32 % registers[1] [31:0] $end
   $var wire 32 8 registers[20] [31:0] $end
   $var wire 32 9 registers[21] [31:0] $end
   $var wire 32 : registers[22] [31:0] $end
   $var wire 32 ; registers[23] [31:0] $end
   $var wire 32 < registers[24] [31:0] $end
   $var wire 32 = registers[25] [31:0] $end
   $var wire 32 > registers[26] [31:0] $end
   $var wire 32 ? registers[27] [31:0] $end
   $var wire 32 @ registers[28] [31:0] $end
   $var wire 32 A registers[29] [31:0] $end
   $var wire 32 & registers[2] [31:0] $end
   $var wire 32 B registers[30] [31:0] $end
   $var wire 32 C registers[31] [31:0] $end
   $var wire 32 ' registers[3] [31:0] $end
   $var wire 32 ( registers[4] [31:0] $end
   $var wire 32 ) registers[5] [31:0] $end
   $var wire 32 * registers[6] [31:0] $end
   $var wire 32 + registers[7] [31:0] $end
   $var wire 32 , registers[8] [31:0] $end
   $var wire 32 - registers[9] [31:0] $end
   $var wire 32 E state [31:0] $end
   $scope module unnamedblk1 $end
    $var wire 32 F next_pc [31:0] $end
   $upscope $end
  $upscope $end
 $upscope $end
$enddefinitions $end


#1
b00000000000000000000000000000000 #
b00000000000000000000000000000000 $
b00000000000000000000000000000000 %
b00000000000000000000000000000000 &
b00000000000000000000000000000000 '
b00000000000000000000000000000000 (
b00000000000000000000000000000000 )
b00000000000000000000000000000000 *
b00000000000000000000000000000000 +
b00000000000000000000000000000000 ,
b00000000000000000000000000000000 -
b00000000000000000000000000000000 .
b00000000000000000000000000000000 /
b00000000000000000000000000000000 0
b00000000000000000000000000000000 1
b00000000000000000000000000000000 2
b00000000000000000000000000000000 3
b00000000000000000000000000000000 4
b00000000000000000000000000000000 5
b00000000000000000000000000000000 6
b00000000000000000000000000000000 7
b00000000000000000000000000000000 8
b00000000000000000000000000000000 9
b00000000000000000000000000000000 :
b00000000000000000000000000000000 ;
b00000000000000000000000000000000 <
b00000000000000000000000000000000 =
b00000000000000000000000000000000 >
b00000000000000000000000000000000 ?
b00000000000000000000000000000000 @
b00000000000000000000000000000000 A
b00000000000000000000000000000000 B
b00000000000000000000000000000000 C
b00000000000000000000000000000000 D
b00000000000000000000000000000000 E
b00000000000000000000000000000000 F
1G
1H
b00000000000000000000000000000000 I
b00000000000000000000000000000000 J
b00000000000000000000000000000000 K
b00000000000000000000000000000000 L
b0000 M
b00000000000000000000000000000000 N
#2
0G
b00000000000000000000000010010011 J
#3
1G
#4
0G
#5
1G
#6
0G
#7
1G
#8
0G
#9
1G
#10
0G
0H
#11
b00000000000000000000000010010011 D
b00000000000000000000000000000001 E
1G
#12
0G
#13
b00000000000000000000000000000100 #
b00000000000000000000000000000000 E
b00000000000000000000000000000100 F
1G
b00000000000000000000000000000100 I
b00000000000000000000000000000100 N
#14
0G
b00000000000000000000000100010011 J
#15
b00000000000000000000000100010011 D
b00000000000000000000000000000001 E
1G
#16
0G
#17
b00000000000000000000000000001000 #
b00000000000000000000000000000000 E
b00000000000000000000000000001000 F
1G
b00000000000000000000000000001000 I
b00000000000000000000000000001000 N
#18
0G
b00000000000000000000000110010011 J
#19
b00000000000000000000000110010011 D
b00000000000000000000000000000001 E
1G
#20
0G
#21
b00000000000000000000000000001100 #
b00000000000000000000000000000000 E
b00000000000000000000000000001100 F
1G
b00000000000000000000000000001100 I
b00000000000000000000000000001100 N
#22
0G
b00000000000000000000001000010011 J
#23
b00000000000000000000001000010011 D
b00000000000000000000000000000001 E
1G
#24
0G
#25
b00000000000000000000000000010000 #
b00000000000000000000000000000000 E
b00000000000000000000000000010000 F
1G
b00000000000000000000000000010000 I
b00000000000000000000000000010000 N
#26
0G
b00000000000000000000001010010011 J
#27
b00000000000000000000001010010011 D
b00000000000000000000000000000001 E
1G
#28
0G
#29
b00000000000000000000000000010100 #
b00000000000000000000000000000000 E
b00000000000000000000000000010100 F
1G
b00000000000000000000000000010100 I
b00000000000000000000000000010100 N
#30
0G
b00000000000000000000001100010011 J
#31
b00000000000000000000001100010011 D
b00000000000000000000000000000001 E
1G
#32
0G
#33
b00000000000000000000000000011000 #
b00000000000000000000000000000000 E
b00000000000000000000000000011000 F
1G
b00000000000000000000000000011000 I
b00000000000000000000000000011000 N
#34
0G
b00000000000000000000001110010011 J
#35
b00000000000000000000001110010011 D
b00000000000000000000000000000001 E
1G
#36
0G
#37
b00000000000000000000000000011100 #
b00000000000000000000000000000000 E
b00000000000000000000000000011100 F
1G
b00000000000000000000000000011100 I
b00000000000000000000000000011100 N
#38
0G
b00000000000000000000010000010011 J
#39
b00000000000000000000010000010011 D
b00000000000000000000000000000001 E
1G
#40
0G
#41
b00000000000000000000000000100000 #
b00000000000000000000000000000000 E
b00000000000000000000000000100000 F
1G
b00000000000000000000000000100000 I
b00000000000000000000000000100000 N
#42
0G
b00000000000000000000010010010011 J
#43
b00000000000000000000010010010011 D
b00000000000000000000000000000001 E
1G
#44
0G
#45
b00000000000000000000000000100100 #
b00000000000000000000000000000000 E
b00000000000000000000000000100100 F
1G
b00000000000000000000000000100100 I
b00000000000000000000000000100100 N
#46
0G
b00000000000000000000010100010011 J
#47
b00000000000000000000010100010011 D
b00000000000000000000000000000001 E
1G
#48
0G
#49
b00000000000000000000000000101000 #
b00000000000000000000000000000000 E
b00000000000000000000000000101000 F
1G
b00000000000000000000000000101000 I
b00000000000000000000000000101000 N
#50
0G
b00000000000000000000010110010011 J
#51
b00000000000000000000010110010011 D
b00000000000000000000000000000001 E
1G
#52
0G
#53
b00000000000000000000000000101100 #
b00000000000000000000000000000000 E
b00000000000000000000000000101100 F
1G
b00000000000000000000000000101100 I
b00000000000000000000000000101100 N
#54
0G
b00000000000000000000011000010011 J
#55
b00000000000000000000011000010011 D
b00000000000000000000000000000001 E
1G
#56
0G
#57
b00000000000000000000000000110000 #
b00000000000000000000000000000000 E
b00000000000000000000000000110000 F
1G
b00000000000000000000000000110000 I
b00000000000000000000000000110000 N
#58
0G
b00000000000000000000011010010011 J
#59
b00000000000000000000011010010011 D
b00000000000000000000000000000001 E
1G
#60
0G
#61
b00000000000000000000000000110100 #
b00000000000000000000000000000000 E
b00000000000000000000000000110100 F
1G
b00000000000000000000000000110100 I
b00000000000000000000000000110100 N
#62
0G
b00000000000000000000011100010011 J
#63
b00000000000000000000011100010011 D
b00000000000000000000000000000001 E
1G
#64
0G
#65
b00000000000000000000000000111000 #
b00000000000000000000000000000000 E
b00000000000000000000000000111000 F
1G
b00000000000000000000000000111000 I
b00000000000000000000000000111000 N
#66
0G
b00000000000000000000011110010011 J
#67
b00000000000000000000011110010011 D
b00000000000000000000000000000001 E
1G
#68
0G
#69
b00000000000000000000000000111100 #
b00000000000000000000000000000000 E
b00000000000000000000000000111100 F
1G
b00000000000000000000000000111100 I
b00000000000000000000000000111100 N
#70
0G
b00000000000000000000100000010011 J
#71
b00000000000000000000100000010011 D
b00000000000000000000000000000001 E
1G
#72
0G
#73
b00000000000000000000000001000000 #
b00000000000000000000000000000000 E
b00000000000000000000000001000000 F
1G
b00000000000000000000000001000000 I
b00000000000000000000000001000000 N
#74
0G
b00000000000000000000100010010011 J
#75
b00000000000000000000100010010011 D
b00000000000000000000000000000001 E
1G
#76
0G
#77
b00000000000000000000000001000100 #
b00000000000000000000000000000000 E
b00000000000000000000000001000100 F
1G
b00000000000000000000000001000100 I
b00000000000000000000000001000100 N
#78
0G
b00000000000000000000100100010011 J
#79
b00000000000000000000100100010011 D
b00000000000000000000000000000001 E
1G
#80
0G
#81
b00000000000000000000000001001000 #
b00000000000000000000000000000000 E
b00000000000000000000000001001000 F
1G
b00000000000000000000000001001000 I
b00000000000000000000000001001000 N
#82
0G
b00000000000000000000100110010011 J
#83
b00000000000000000000100110010011 D
b00000000000000000000000000000001 E
1G
#84
0G
#85
b00000000000000000000000001001100 #
b00000000000000000000000000000000 E
b00000000000000000000000001001100 F
1G
b00000000000000000000000001001100 I
b00000000000000000000000001001100 N
#86
0G
b00000000000000000000101000010011 J
#87
b00000000000000000000101000010011 D
b00000000000000000000000000000001 E
1G
#88
0G
#89
b00000000000000000000000001010000 #
b00000000000000000000000000000000 E
b00000000000000000000000001010000 F
1G
b00000000000000000000000001010000 I
b00000000000000000000000001010000 N
#90
0G
b00000000000000000000101010010011 J
#91
b00000000000000000000101010010011 D
b00000000000000000000000000000001 E
1G
#92
0G
#93
b00000000000000000000000001010100 #
b00000000000000000000000000000000 E
b00000000000000000000000001010100 F
1G
b00000000000000000000000001010100 I
b00000000000000000000000001010100 N
#94
0G
b00000000000000000000101100010011 J
#95
b00000000000000000000101100010011 D
b00000000000000000000000000000001 E
1G
#96
0G
#97
b00000000000000000000000001011000 #
b00000000000000000000000000000000 E
b00000000000000000000000001011000 F
1G
b00000000000000000000000001011000 I
b00000000000000000000000001011000 N
#98
0G
b00000000000000000000101110010011 J
#99
b00000000000000000000101110010011 D
b00000000000000000000000000000001 E
1G
#100
0G
#101
b00000000000000000000000001011100 #
b00000000000000000000000000000000 E
b00000000000000000000000001011100 F
1G
b00000000000000000000000001011100 I
b00000000000000000000000001011100 N
#102
0G
b00000000000000000000110000010011 J
#103
b00000000000000000000110000010011 D
b00000000000000000000000000000001 E
1G
#104
0G
#105
b00000000000000000000000001100000 #
b00000000000000000000000000000000 E
b00000000000000000000000001100000 F
1G
b00000000000000000000000001100000 I
b00000000000000000000000001100000 N
#106
0G
b00000000000000000000110010010011 J
#107
b00000000000000000000110010010011 D
b00000000000000000000000000000001 E
1G
#108
0G
#109
b00000000000000000000000001100100 #
b00000000000000000000000000000000 E
b00000000000000000000000001100100 F
1G
b00000000000000000000000001100100 I
b00000000000000000000000001100100 N
#110
0G
b00000000000000000000110100010011 J
#111
b00000000000000000000110100010011 D
b00000000000000000000000000000001 E
1G
#112
0G
#113
b00000000000000000000000001101000 #
b00000000000000000000000000000000 E
b00000000000000000000000001101000 F
1G
b00000000000000000000000001101000 I
b00000000000000000000000001101000 N
#114
0G
b00000000000000000000110110010011 J
#115
b00000000000000000000110110010011 D
b00000000000000000000000000000001 E
1G
#116
0G
#117
b00000000000000000000000001101100 #
b00000000000000000000000000000000 E
b00000000000000000000000001101100 F
1G
b00000000000000000000000001101100 I
b00000000000000000000000001101100 N
#118
0G
b00000000000000000000111000010011 J
#119
b00000000000000000000111000010011 D
b00000000000000000000000000000001 E
1G
#120
0G
#121
b00000000000000000000000001110000 #
b00000000000000000000000000000000 E
b00000000000000000000000001110000 F
1G
b00000000000000000000000001110000 I
b00000000000000000000000001110000 N
#122
0G
b00000000000000000000111010010011 J
#123
b00000000000000000000111010010011 D
b00000000000000000000000000000001 E
1G
#124
0G
#125
b00000000000000000000000001110100 #
b00000000000000000000000000000000 E
b00000000000000000000000001110100 F
1G
b00000000000000000000000001110100 I
b00000000000000000000000001110100 N
#126
0G
b00000000000000000000111100010011 J
#127
b00000000000000000000111100010011 D
b00000000000000000000000000000001 E
1G
#128
0G
#129
b00000000000000000000000001111000 #
b00000000000000000000000000000000 E
b00000000000000000000000001111000 F
1G
b00000000000000000000000001111000 I
b00000000000000000000000001111000 N
#130
0G
b00000000000000000000111110010011 J
#131
b00000000000000000000111110010011 D
b00000000000000000000000000000001 E
1G
#132
0G
#133
b00000000000000000000000001111100 #
b00000000000000000000000000000000 E
b00000000000000000000000001111100 F
1G
b00000000000000000000000001111100 I
b00000000000000000000000001111100 N
#134
0G
b00000000000000000100000100110111 J
#135
b00000000000000000100000100110111 D
b00000000000000000000000000000001 E
1G
#136
0G
#137
b00000000000000000000000010000000 #
b00000000000000000100000000000000 &
b00000000000000000000000000000000 E
b00000000000000000000000010000000 F
1G
b00000000000000000000000010000000 I
b00000000000000000000000010000000 N
#138
0G
b00000000000000010000000100010011 J
#139
b00000000000000010000000100010011 D
b00000000000000000000000000000001 E
1G
#140
0G
#141
b00000000000000000000000010000100 #
b00000000000000000000000000000000 E
b00000000000000000000000010000100 F
1G
b00000000000000000000000010000100 I
b00000000000000000000000010000100 N
#142
0G
b00000000100000000000000011101111 J
#143
b00000000100000000000000011101111 D
b00000000000000000000000000000001 E
1G
#144
0G
#145
b00000000000000000000000010001100 #
b00000000000000000000000010001000 %
b00000000000000000000000000000000 E
b00000000000000000000000010001100 F
1G
b00000000000000000000000010001100 I
b00000000000000000000000010001100 N
#146
0G
b11111111000000010000000100010011 J
#147
b11111111000000010000000100010011 D
b00000000000000000000000000000001 E
1G
#148
0G
#149
b00000000000000000000000010010000 #
b00000000000000000000000000000000 E
b00000000000000000000000010010000 F
1G
b00000000000000000000000010010000 I
b00000000000000000000000010010000 N
#150
0G
b00000000000100010010011000100011 J
#151
b00000000000100010010011000100011 D
b00000000000000000000000000000001 E
1G
#152
0G
#153
b00000000000000000000000010010100 #
b00000000000000000000000000000000 E
b00000000000000000000000010010100 F
1G
b00000000000000000000000010010100 I
b00000000000000000100000000001100 K
b00000000000000000000000010001000 L
b1111 M
b00000000000000000000000010010100 N
#154
0G
b00000000100000010010010000100011 J
#155
b00000000100000010010010000100011 D
b00000000000000000000000000000001 E
1G
b0000 M
#156
0G
#157
b00000000000000000000000010011000 #
b00000000000000000000000000000000 E
b00000000000000000000000010011000 F
1G
b00000000000000000000000010011000 I
b00000000000000000100000000001000 K
b00000000000000000000000000000000 L
b1111 M
b00000000000000000000000010011000 N
#158
0G
b10000000000000000000010000110111 J
#159
b10000000000000000000010000110111 D
b00000000000000000000000000000001 E
1G
b0000 M
#160
0G
#161
b00000000000000000000000010011100 #
b10000000000000000000000000000000 ,
b00000000000000000000000000000000 E
b00000000000000000000000010011100 F
1G
b00000000000000000000000010011100 I
b00000000000000000000000010011100 N
#162
0G
b00000000010001000010010110000011 J
#163
b00000000010001000010010110000011 D
b00000000000000000000000000000001 E
1G
#164
0G
#165
b00000000000000000000000010100000 #
b00000000000000000000000000000010 E
b00000000000000000000000010100000 F
1G
b10000000000000000000000000000100 I
b00000000000000000000000010100000 N
#166
0G
b00000000000000000000000000000000 J
#167
b00000000000000000000000000000000 E
1G
b00000000000000000000000010100000 I
#168
0G
b00000000000001000010010100000011 J
#169
b00000000000001000010010100000011 D
b00000000000000000000000000000001 E
1G
#170
0G
#171
b00000000000000000000000010100100 #
b00000000000000000000000000000010 E
b00000000000000000000000010100100 F
1G
b10000000000000000000000000000000 I
b00000000000000000000000010100100 N
#172
0G
b00000000000000000000000000000000 J
#173
b00000000000000000000000000000000 E
1G
b00000000000000000000000010100100 I
#174
0G
b00000000000000000000000010010111 J
#175
b00000000000000000000000010010111 D
b00000000000000000000000000000001 E
1G
#176
0G
#177
b00000000000000000000000010101000 #
b00000000000000000000000010100100 %
b00000000000000000000000000000000 E
b00000000000000000000000010101000 F
1G
b00000000000000000000000010101000 I
b00000000000000000000000010101000 N
#178
0G
b00000001110000001000000011100111 J
#179
b00000001110000001000000011100111 D
b00000000000000000000000000000001 E
1G
#180
0G
#181
b00000000000000000000000011000000 #
b00000000000000000000000010101100 %
b00000000000000000000000000000000 E
b00000000000000000000000010101100 F
1G
b00000000000000000000000011000000 I
b00000000000000000000000011000000 N
#182
0G
b00000010000001010000110001100011 J
#183
b00000010000001010000110001100011 D
b00000000000000000000000000000001 E
1G
#184
0G
#185
b00000000000000000000000000111000 #
b00000000000000000000000000000000 E
b00000000000000000000000000111000 F
1G
b00000000000000000000000000111000 I
b00000000000000000000000000111000 N
#186
0G
b00000000000000000000011110010011 J
#187
b00000000000000000000011110010011 D
b00000000000000000000000000000001 E
1G
#188
0G
#189
b00000000000000000000000000111100 #
b00000000000000000000000000000000 E
b00000000000000000000000000111100 F
1G
b00000000000000000000000000111100 I
b00000000000000000000000000111100 N
#190
0G
b00000000000000000000100000010011 J
#191
b00000000000000000000100000010011 D
b00000000000000000000000000000001 E
1G
#192
0G
#193
b00000000000000000000000001000000 #
b00000000000000000000000000000000 E
b00000000000000000000000001000000 F
1G
b00000000000000000000000001000000 I
b00000000000000000000000001000000 N
#194
0G
b00000000000000000000100010010011 J
#195
b00000000000000000000100010010011 D
b00000000000000000000000000000001 E
1G
#196
0G
#197
b00000000000000000000000001000100 #
b00000000000000000000000000000000 E
b00000000000000000000000001000100 F
1G
b00000000000000000000000001000100 I
b00000000000000000000000001000100 N
#198
0G
b00000000000000000000100100010011 J
#199
b00000000000000000000100100010011 D
b00000000000000000000000000000001 E
1G
#200
0G
#201
b00000000000000000000000001001000 #
b00000000000000000000000000000000 E
b00000000000000000000000001001000 F
1G
b00000000000000000000000001001000 I
b00000000000000000000000001001000 N
#202
0G
b00000000000000000000100110010011 J
#203
b00000000000000000000100110010011 D
b00000000000000000000000000000001 E
1G
#204
0G
#205
b00000000000000000000000001001100 #
b00000000000000000000000000000000 E
b00000000000000000000000001001100 F
1G
b00000000000000000000000001001100 I
b00000000000000000000000001001100 N
#206
0G
b00000000000000000000101000010011 J
#207
b00000000000000000000101000010011 D
b00000000000000000000000000000001 E
1G
#208
0G
#209
b00000000000000000000000001010000 #
b00000000000000000000000000000000 E
b00000000000000000000000001010000 F
1G
b00000000000000000000000001010000 I
b00000000000000000000000001010000 N
#210
0G
b00000000000000000000101010010011 J
#211
b00000000000000000000101010010011 D
b00000000000000000000000000000001 E
1G
#212
0G
#213
b00000000000000000000000001010100 #
b00000000000000000000000000000000 E
b00000000000000000000000001010100 F
1G
b00000000000000000000000001010100 I
b00000000000000000000000001010100 N
#214
0G
b00000000000000000000101100010011 J
#215
b00000000000000000000101100010011 D
b00000000000000000000000000000001 E
1G
#216
0G
#217
b00000000000000000000000001011000 #
b00000000000000000000000000000000 E
b00000000000000000000000001011000 F
1G
b00000000000000000000000001011000 I
b00000000000000000000000001011000 N
#218
0G
b00000000000000000000101110010011 J
#219
b00000000000000000000101110010011 D
b00000000000000000000000000000001 E
1G
#220
0G
#221
b00000000000000000000000001011100 #
b00000000000000000000000000000000 E
b00000000000000000000000001011100 F
1G
b00000000000000000000000001011100 I
b00000000000000000000000001011100 N
#222
0G
b00000000000000000000110000010011 J
#223
b00000000000000000000110000010011 D
b00000000000000000000000000000001 E
1G
#224
0G
#225
b00000000000000000000000001100000 #
b00000000000000000000000000000000 E
b00000000000000000000000001100000 F
1G
b00000000000000000000000001100000 I
b00000000000000000000000001100000 N
#226
0G
b00000000000000000000110010010011 J
#227
b00000000000000000000110010010011 D
b00000000000000000000000000000001 E
1G
#228
0G
#229
b00000000000000000000000001100100 #
b00000000000000000000000000000000 E
b00000000000000000000000001100100 F
1G
b00000000000000000000000001100100 I
b00000000000000000000000001100100 N
#230
0G
b00000000000000000000110100010011 J
#231
b00000000000000000000110100010011 D
b00000000000000000000000000000001 E
1G
#232
0G
#233
b00000000000000000000000001101000 #
b00000000000000000000000000000000 E
b00000000000000000000000001101000 F
1G
b00000000000000000000000001101000 I
b00000000000000000000000001101000 N
#234
0G
b00000000000000000000110110010011 J
#235
b00000000000000000000110110010011 D
b00000000000000000000000000000001 E
1G
#236
0G
#237
b00000000000000000000000001101100 #
b00000000000000000000000000000000 E
b00000000000000000000000001101100 F
1G
b00000000000000000000000001101100 I
b00000000000000000000000001101100 N
#238
0G
b00000000000000000000111000010011 J
#239
b00000000000000000000111000010011 D
b00000000000000000000000000000001 E
1G
#240
0G
#241
b00000000000000000000000001110000 #
b00000000000000000000000000000000 E
b00000000000000000000000001110000 F
1G
b00000000000000000000000001110000 I
b00000000000000000000000001110000 N
#242
0G
b00000000000000000000111010010011 J
#243
b00000000000000000000111010010011 D
b00000000000000000000000000000001 E
1G
#244
0G
#245
b00000000000000000000000001110100 #
b00000000000000000000000000000000 E
b00000000000000000000000001110100 F
1G
b00000000000000000000000001110100 I
b00000000000000000000000001110100 N
#246
0G
b00000000000000000000111100010011 J
#247
b00000000000000000000111100010011 D
b00000000000000000000000000000001 E
1G
#248
0G
#249
b00000000000000000000000001111000 #
b00000000000000000000000000000000 E
b00000000000000000000000001111000 F
1G
b00000000000000000000000001111000 I
b00000000000000000000000001111000 N
#250
0G
b00000000000000000000111110010011 J
#251
b00000000000000000000111110010011 D
b00000000000000000000000000000001 E
1G
#252
0G
#253
b00000000000000000000000001111100 #
b00000000000000000000000000000000 E
b00000000000000000000000001111100 F
1G
b00000000000000000000000001111100 I
b00000000000000000000000001111100 N
#254
0G
b00000000000000000100000100110111 J
#255
b00000000000000000100000100110111 D
b00000000000000000000000000000001 E
1G
#256
0G
#257
b00000000000000000000000010000000 #
b00000000000000000000000000000000 E
b00000000000000000000000010000000 F
1G
b00000000000000000000000010000000 I
b00000000000000000000000010000000 N
#258
0G
b00000000000000010000000100010011 J
#259
b00000000000000010000000100010011 D
b00000000000000000000000000000001 E
1G
#260
0G
#261
b00000000000000000000000010000100 #
b00000000000000000000000000000000 E
b00000000000000000000000010000100 F
1G
b00000000000000000000000010000100 I
b00000000000000000000000010000100 N
#262
0G
b00000000100000000000000011101111 J
#263
b00000000100000000000000011101111 D
b00000000000000000000000000000001 E
1G
#264
0G
#265
b00000000000000000000000010001100 #
b00000000000000000000000010001000 %
b00000000000000000000000000000000 E
b00000000000000000000000010001100 F
1G
b00000000000000000000000010001100 I
b00000000000000000000000010001100 N
#266
0G
b11111111000000010000000100010011 J
#267
b11111111000000010000000100010011 D
b00000000000000000000000000000001 E
1G
#268
0G
#269
b00000000000000000000000010010000 #
b00000000000000000000000000000000 E
b00000000000000000000000010010000 F
1G
b00000000000000000000000010010000 I
b00000000000000000000000010010000 N
#270
0G
b00000000000100010010011000100011 J
#271
b00000000000100010010011000100011 D
b00000000000000000000000000000001 E
1G
#272
0G
#273
b00000000000000000000000010010100 #
b00000000000000000000000000000000 E
b00000000000000000000000010010100 F
1G
b00000000000000000000000010010100 I
b00000000000000000100000000001100 K
b00000000000000000000000010001000 L
b1111 M
b00000000000000000000000010010100 N
#274
0G
b00000000100000010010010000100011 J
#275
b00000000100000010010010000100011 D
b00000000000000000000000000000001 E
1G
b0000 M
#276
0G
#277
b00000000000000000000000010011000 #
b00000000000000000000000000000000 E
b00000000000000000000000010011000 F
1G
b00000000000000000000000010011000 I
b00000000000000000100000000001000 K
b10000000000000000000000000000000 L
b1111 M
b00000000000000000000000010011000 N
#278
0G
b10000000000000000000010000110111 J
#279
b10000000000000000000010000110111 D
b00000000000000000000000000000001 E
1G
b0000 M
#280
0G
#281
b00000000000000000000000010011100 #
b00000000000000000000000000000000 E
b00000000000000000000000010011100 F
1G
b00000000000000000000000010011100 I
b00000000000000000000000010011100 N
#282
0G
b00000000010001000010010110000011 J
#283
b00000000010001000010010110000011 D
b00000000000000000000000000000001 E
1G
#284
0G
#285
b00000000000000000000000010100000 #
b00000000000000000000000000000010 E
b00000000000000000000000010100000 F
1G
b10000000000000000000000000000100 I
b00000000000000000000000010100000 N
#286
0G
b00000000000000000000000000000000 J
#287
b00000000000000000000000000000000 E
1G
b00000000000000000000000010100000 I
#288
0G
b00000000000001000010010100000011 J
#289
b00000000000001000010010100000011 D
b00000000000000000000000000000001 E
1G
#290
0G
#291
b00000000000000000000000010100100 #
b00000000000000000000000000000010 E
b00000000000000000000000010100100 F
1G
b10000000000000000000000000000000 I
b00000000000000000000000010100100 N
#292
0G
b00000000000000000000000000000000 J
#293
b00000000000000000000000000000000 E
1G
b00000000000000000000000010100100 I
#294
0G
b00000000000000000000000010010111 J
#295
b00000000000000000000000010010111 D
b00000000000000000000000000000001 E
1G
#296
0G
#297
b00000000000000000000000010101000 #
b00000000000000000000000010100100 %
b00000000000000000000000000000000 E
b00000000000000000000000010101000 F
1G
b00000000000000000000000010101000 I
b00000000000000000000000010101000 N
#298
0G
b00000001110000001000000011100111 J
#299
b00000001110000001000000011100111 D
b00000000000000000000000000000001 E
1G
#300
0G
#301
b00000000000000000000000011000000 #
b00000000000000000000000010101100 %
b00000000000000000000000000000000 E
b00000000000000000000000010101100 F
1G
b00000000000000000000000011000000 I
b00000000000000000000000011000000 N
#302
0G
b00000010000001010000110001100011 J
#303
b00000010000001010000110001100011 D
b00000000000000000000000000000001 E
1G
#304
0G
#305
b00000000000000000000000000111000 #
b00000000000000000000000000000000 E
b00000000000000000000000000111000 F
1G
b00000000000000000000000000111000 I
b00000000000000000000000000111000 N
#306
0G
b00000000000000000000011110010011 J
#307
b00000000000000000000011110010011 D
b00000000000000000000000000000001 E
1G
#308
0G
#309
b00000000000000000000000000111100 #
b00000000000000000000000000000000 E
b00000000000000000000000000111100 F
1G
b00000000000000000000000000111100 I
b00000000000000000000000000111100 N
#310
0G
b00000000000000000000100000010011 J
#311
b00000000000000000000100000010011 D
b00000000000000000000000000000001 E
1G
#312
0G
#313
b00000000000000000000000001000000 #
b00000000000000000000000000000000 E
b00000000000000000000000001000000 F
1G
b00000000000000000000000001000000 I
b00000000000000000000000001000000 N
#314
0G
b00000000000000000000100010010011 J
#315
b00000000000000000000100010010011 D
b00000000000000000000000000000001 E
1G
#316
0G
#317
b00000000000000000000000001000100 #
b00000000000000000000000000000000 E
b00000000000000000000000001000100 F
1G
b00000000000000000000000001000100 I
b00000000000000000000000001000100 N
#318
0G
b00000000000000000000100100010011 J
#319
b00000000000000000000100100010011 D
b00000000000000000000000000000001 E
1G
#320
0G
#321
b00000000000000000000000001001000 #
b00000000000000000000000000000000 E
b00000000000000000000000001001000 F
1G
b00000000000000000000000001001000 I
b00000000000000000000000001001000 N
#322
0G
b00000000000000000000100110010011 J
#323
b00000000000000000000100110010011 D
b00000000000000000000000000000001 E
1G
#324
0G
#325
b00000000000000000000000001001100 #
b00000000000000000000000000000000 E
b00000000000000000000000001001100 F
1G
b00000000000000000000000001001100 I
b00000000000000000000000001001100 N
#326
0G
b00000000000000000000101000010011 J
#327
b00000000000000000000101000010011 D
b00000000000000000000000000000001 E
1G
#328
0G
#329
b00000000000000000000000001010000 #
b00000000000000000000000000000000 E
b00000000000000000000000001010000 F
1G
b00000000000000000000000001010000 I
b00000000000000000000000001010000 N
#330
0G
b00000000000000000000101010010011 J
#331
b00000000000000000000101010010011 D
b00000000000000000000000000000001 E
1G
#332
0G
#333
b00000000000000000000000001010100 #
b00000000000000000000000000000000 E
b00000000000000000000000001010100 F
1G
b00000000000000000000000001010100 I
b00000000000000000000000001010100 N
#334
0G
b00000000000000000000101100010011 J
#335
b00000000000000000000101100010011 D
b00000000000000000000000000000001 E
1G
#336
0G
#337
b00000000000000000000000001011000 #
b00000000000000000000000000000000 E
b00000000000000000000000001011000 F
1G
b00000000000000000000000001011000 I
b00000000000000000000000001011000 N
#338
0G
b00000000000000000000101110010011 J
#339
b00000000000000000000101110010011 D
b00000000000000000000000000000001 E
1G
#340
0G
#341
b00000000000000000000000001011100 #
b00000000000000000000000000000000 E
b00000000000000000000000001011100 F
1G
b00000000000000000000000001011100 I
b00000000000000000000000001011100 N
#342
0G
b00000000000000000000110000010011 J
#343
b00000000000000000000110000010011 D
b00000000000000000000000000000001 E
1G
#344
0G
#345
b00000000000000000000000001100000 #
b00000000000000000000000000000000 E
b00000000000000000000000001100000 F
1G
b00000000000000000000000001100000 I
b00000000000000000000000001100000 N
#346
0G
b00000000000000000000110010010011 J
#347
b00000000000000000000110010010011 D
b00000000000000000000000000000001 E
1G
#348
0G
#349
b00000000000000000000000001100100 #
b00000000000000000000000000000000 E
b00000000000000000000000001100100 F
1G
b00000000000000000000000001100100 I
b00000000000000000000000001100100 N
#350
0G
b00000000000000000000110100010011 J
#351
b00000000000000000000110100010011 D
b00000000000000000000000000000001 E
1G
#352
0G
#353
b00000000000000000000000001101000 #
b00000000000000000000000000000000 E
b00000000000000000000000001101000 F
1G
b00000000000000000000000001101000 I
b00000000000000000000000001101000 N
#354
0G
b00000000000000000000110110010011 J
#355
b00000000000000000000110110010011 D
b00000000000000000000000000000001 E
1G
#356
0G
#357
b00000000000000000000000001101100 #
b00000000000000000000000000000000 E
b00000000000000000000000001101100 F
1G
b00000000000000000000000001101100 I
b00000000000000000000000001101100 N
#358
0G
b00000000000000000000111000010011 J
#359
b00000000000000000000111000010011 D
b00000000000000000000000000000001 E
1G
#360
0G
#361
b00000000000000000000000001110000 #
b00000000000000000000000000000000 E
b00000000000000000000000001110000 F
1G
b00000000000000000000000001110000 I
b00000000000000000000000001110000 N
#362
0G
b00000000000000000000111010010011 J
#363
b00000000000000000000111010010011 D
b00000000000000000000000000000001 E
1G
#364
0G
#365
b00000000000000000000000001110100 #
b00000000000000000000000000000000 E
b00000000000000000000000001110100 F
1G
b00000000000000000000000001110100 I
b00000000000000000000000001110100 N
